%!PS-Adobe-2.0 EPSF-2.0
%%BoundingBox:  0 0 567 411
%%Title: eps-files/VBFWWNWA_sig.eps: c1
%%Creator: ROOT Version 5.34/21
%%CreationDate: Fri Feb  2 15:08:01 2018
%%EndComments
%%BeginProlog
80 dict begin
/s {stroke} def /l {lineto} def /m {moveto} def /t {translate} def
/r {rotate} def /rl {roll}  def /R {repeat} def
/d {rlineto} def /rm {rmoveto} def /gr {grestore} def /f {eofill} def
/c {setrgbcolor} def /black {0 setgray} def /sd {setdash} def
/cl {closepath} def /sf {scalefont setfont} def /lw {setlinewidth} def
/box {m dup 0 exch d exch 0 d 0 exch neg d cl} def
/NC{systemdict begin initclip end}def/C{NC box clip newpath}def
/bl {box s} def /bf {box f} def /Y { 0 exch d} def /X { 0 d} def 
/K {{pop pop 0 moveto} exch kshow} bind def
/ita {/ang 15 def gsave [1 0 ang dup sin exch cos div 1 0 0] concat} def 
/mp {newpath /y exch def /x exch def} def
/side {[w .77 mul w .23 mul] .385 w mul sd w 0 l currentpoint t -144 r} def
/mr {mp x y w2 0 360 arc} def /m24 {mr s} def /m20 {mr f} def
/mb {mp x y w2 add m w2 neg 0 d 0 w neg d w 0 d 0 w d cl} def
/mt {mp x y w2 add m w2 neg w neg d w 0 d cl} def
/m21 {mb f} def /m25 {mb s} def /m22 {mt f} def /m26{mt s} def
/m23 {mp x y w2 sub m w2 w d w neg 0 d cl f} def
/m27 {mp x y w2 add m w3 neg w2 neg d w3 w2 neg d w3 w2 d cl s} def
/m28 {mp x w2 sub y w2 sub w3 add m w3 0 d  0 w3 neg d w3 0 d 0 w3 d w3 0 d  0 w3 d w3 neg 0 d 0 w3 d w3 neg 0 d 0 w3 neg d w3 neg 0 d cl s } def
/m29 {mp gsave x w2 sub y w2 add w3 sub m currentpoint t 4 {side} repeat cl fill gr} def
/m30 {mp gsave x w2 sub y w2 add w3 sub m currentpoint t 4 {side} repeat cl s gr} def
/m31 {mp x y w2 sub m 0 w d x w2 sub y m w 0 d x w2 sub y w2 add m w w neg d x w2 sub y w2 sub m w w d s} def
/m32 {mp x y w2 sub m w2 w d w neg 0 d cl s} def
/m33 {mp x y w2 add m w3 neg w2 neg d w3 w2 neg d w3 w2 d cl f} def
/m34 {mp x w2 sub y w2 sub w3 add m w3 0 d  0 w3 neg d w3 0 d 0 w3 d w3 0 d  0 w3 d w3 neg 0 d 0 w3 d w3 neg 0 d 0 w3 neg d w3 neg 0 d cl f } def
/m2 {mp x y w2 sub m 0 w d x w2 sub y m w 0 d s} def
/m5 {mp x w2 sub y w2 sub m w w d x w2 sub y w2 add m w w neg d s} def
/reEncode {exch findfont dup length dict begin {1 index /FID eq  {pop pop} {def} ifelse } forall /Encoding exch def currentdict end dup /FontName get exch definefont pop } def [/Times-Bold /Times-Italic /Times-BoldItalic /Helvetica /Helvetica-Oblique
 /Helvetica-Bold /Helvetica-BoldOblique /Courier /Courier-Oblique /Courier-Bold /Courier-BoldOblique /Times-Roman /AvantGarde-Book /AvantGarde-BookOblique /AvantGarde-Demi /AvantGarde-DemiOblique /Bookman-Demi /Bookman-DemiItalic /Bookman-Light
 /Bookman-LightItalic /Helvetica-Narrow /Helvetica-Narrow-Bold /Helvetica-Narrow-BoldOblique /Helvetica-Narrow-Oblique /NewCenturySchlbk-Roman /NewCenturySchlbk-Bold /NewCenturySchlbk-BoldItalic /NewCenturySchlbk-Italic /Palatino-Bold
 /Palatino-BoldItalic /Palatino-Italic /Palatino-Roman ] {ISOLatin1Encoding reEncode } forall
%%EndProlog
%%BeginSetup
%%EndSetup
newpath  gsave  .25 .25 scale  gsave  0 0 t black[  ] 0 sd 3 lw 1 1 1 c 2268 1645 0 0 bf black 1 1 1 c 1723 1300 363 263 bf black 1723 1300 363 263 bl 363 263 m 1723 X s
 gsave  2268 1645 0 0 C 1869.75 62.251 t 0 r /Helvetica findfont 77.8138 sf 0 0 m ( [GeV]) show NC gr 
 gsave  2268 1645 0 0 C 1725.24 40.0185 t 0 r /Helvetica findfont 51.1348 sf 0 0 m (Scalar) show NC gr 
 gsave  2268 1645 0 0 C 1665.22 62.251 t 0 r /Helvetica findfont 77.8138 sf 0 0 m (m) show NC gr  521 301 m -38 Y s 577 282 m -19 Y s 633 282 m -19 Y s 690 282 m -19 Y s 746 282 m -19 Y s 802 301 m -38 Y s 858 282 m -19 Y s 915 282 m -19 Y s 971 282
 m -19 Y s 1027 282 m -19 Y s 1084 301 m -38 Y s 1140 282 m -19 Y s 1196 282 m -19 Y s 1253 282 m -19 Y s 1309 282 m -19 Y s 1365 301 m -38 Y s 1422 282 m -19 Y s 1478 282 m -19 Y s 1534 282 m -19 Y s 1591 282 m -19 Y s 1647 301 m -38 Y s 1703 282 m
 -19 Y s 1760 282 m -19 Y s 1816 282 m -19 Y s 1872 282 m -19 Y s 1929 301 m -38 Y s 521 301 m -38 Y s 464 282 m -19 Y s 408 282 m -19 Y s 1929 301 m -38 Y s 1985 282 m -19 Y s 2041 282 m -19 Y s
 gsave  2268 1645 0 0 C 455.767 191.2 t 0 r /Helvetica findfont 77.8138 sf 0 0 m (500) show NC gr 
 gsave  2268 1645 0 0 C 713.664 191.2 t 0 r /Helvetica findfont 77.8138 sf 0 0 m (1000) show NC gr 
 gsave  2268 1645 0 0 C 996.017 191.2 t 0 r /Helvetica findfont 77.8138 sf 0 0 m (1500) show NC gr 
 gsave  2268 1645 0 0 C 1278.37 191.2 t 0 r /Helvetica findfont 77.8138 sf 0 0 m (2000) show NC gr 
 gsave  2268 1645 0 0 C 1558.5 191.2 t 0 r /Helvetica findfont 77.8138 sf 0 0 m (2500) show NC gr 
 gsave  2268 1645 0 0 C 1840.85 191.2 t 0 r /Helvetica findfont 77.8138 sf 0 0 m (3000) show NC gr  363 1563 m 1723 X s 521 1525 m 38 Y s 577 1544 m 19 Y s 633 1544 m 19 Y s 690 1544 m 19 Y s 746 1544 m 19 Y s 802 1525 m 38 Y s 858 1544 m 19 Y s 915
 1544 m 19 Y s 971 1544 m 19 Y s 1027 1544 m 19 Y s 1084 1525 m 38 Y s 1140 1544 m 19 Y s 1196 1544 m 19 Y s 1253 1544 m 19 Y s 1309 1544 m 19 Y s 1365 1525 m 38 Y s 1422 1544 m 19 Y s 1478 1544 m 19 Y s 1534 1544 m 19 Y s 1591 1544 m 19 Y s 1647
 1525 m 38 Y s 1703 1544 m 19 Y s 1760 1544 m 19 Y s 1816 1544 m 19 Y s 1872 1544 m 19 Y s 1929 1525 m 38 Y s 521 1525 m 38 Y s 464 1544 m 19 Y s 408 1544 m 19 Y s 1929 1525 m 38 Y s 1985 1544 m 19 Y s 2041 1544 m 19 Y s 363 263 m 1300 Y s
 gsave  2268 1645 0 0 C 193.423 1531.82 t 90 r /Helvetica-Oblique findfont 51.1348 sf 0 0 m (0) show NC gr 
 gsave  2268 1645 0 0 C 153.404 1485.13 t 90 r /Helvetica-Oblique findfont 77.8138 sf 0 0 m (p) show NC gr 
 gsave  2268 1645 0 0 C 153.404 1276.15 t 90 r /Helvetica findfont 77.8138 sf 0 0 m (Local ) show NC gr  417 263 m -54 X s
 gsave  2268 1645 0 0 C 269.013 264.567 t 0 r /Helvetica findfont 51.1348 sf 0 0 m (\25510) show NC gr 
 gsave  2268 1645 0 0 C 184.53 228.995 t 0 r /Helvetica findfont 77.8138 sf 0 0 m (10) show NC gr  390 299 m -27 X s 390 320 m -27 X s 390 334 m -27 X s 390 346 m -27 X s 390 355 m -27 X s 390 363 m -27 X s 390 370 m -27 X s 390 376 m -27 X s 417 381
 m -54 X s
 gsave  2268 1645 0 0 C 297.916 382.399 t 0 r /Helvetica findfont 51.1348 sf 0 0 m (\2559) show NC gr 
 gsave  2268 1645 0 0 C 213.432 346.827 t 0 r /Helvetica findfont 77.8138 sf 0 0 m (10) show NC gr  390 417 m -27 X s 390 438 m -27 X s 390 453 m -27 X s 390 464 m -27 X s 390 473 m -27 X s 390 481 m -27 X s 390 488 m -27 X s 390 494 m -27 X s 417
 500 m -54 X s
 gsave  2268 1645 0 0 C 297.916 500.232 t 0 r /Helvetica findfont 51.1348 sf 0 0 m (\2558) show NC gr 
 gsave  2268 1645 0 0 C 213.432 464.66 t 0 r /Helvetica findfont 77.8138 sf 0 0 m (10) show NC gr  390 535 m -27 X s 390 556 m -27 X s 390 571 m -27 X s 390 582 m -27 X s 390 591 m -27 X s 390 599 m -27 X s 390 606 m -27 X s 390 612 m -27 X s 417 618
 m -54 X s
 gsave  2268 1645 0 0 C 297.916 615.841 t 0 r /Helvetica findfont 51.1348 sf 0 0 m (\2557) show NC gr 
 gsave  2268 1645 0 0 C 213.432 582.492 t 0 r /Helvetica findfont 77.8138 sf 0 0 m (10) show NC gr  390 653 m -27 X s 390 674 m -27 X s 390 689 m -27 X s 390 700 m -27 X s 390 710 m -27 X s 390 718 m -27 X s 390 724 m -27 X s 390 730 m -27 X s 417
 736 m -54 X s
 gsave  2268 1645 0 0 C 297.916 735.896 t 0 r /Helvetica findfont 51.1348 sf 0 0 m (\2556) show NC gr 
 gsave  2268 1645 0 0 C 213.432 700.324 t 0 r /Helvetica findfont 77.8138 sf 0 0 m (10) show NC gr  390 771 m -27 X s 390 792 m -27 X s 390 807 m -27 X s 390 818 m -27 X s 390 828 m -27 X s 390 836 m -27 X s 390 843 m -27 X s 390 849 m -27 X s 417
 854 m -54 X s
 gsave  2268 1645 0 0 C 297.916 855.952 t 0 r /Helvetica findfont 51.1348 sf 0 0 m (\2555) show NC gr 
 gsave  2268 1645 0 0 C 213.432 820.38 t 0 r /Helvetica findfont 77.8138 sf 0 0 m (10) show NC gr  390 890 m -27 X s 390 910 m -27 X s 390 925 m -27 X s 390 937 m -27 X s 390 946 m -27 X s 390 954 m -27 X s 390 961 m -27 X s 390 967 m -27 X s 417 972
 m -54 X s
 gsave  2268 1645 0 0 C 297.916 971.561 t 0 r /Helvetica findfont 51.1348 sf 0 0 m (\2554) show NC gr 
 gsave  2268 1645 0 0 C 213.432 938.212 t 0 r /Helvetica findfont 77.8138 sf 0 0 m (10) show NC gr  390 1008 m -27 X s 390 1029 m -27 X s 390 1043 m -27 X s 390 1055 m -27 X s 390 1064 m -27 X s 390 1072 m -27 X s 390 1079 m -27 X s 390 1085 m -27 X
 s 417 1090 m -54 X s
 gsave  2268 1645 0 0 C 297.916 1091.62 t 0 r /Helvetica findfont 51.1348 sf 0 0 m (\2553) show NC gr 
 gsave  2268 1645 0 0 C 213.432 1056.04 t 0 r /Helvetica findfont 77.8138 sf 0 0 m (10) show NC gr  390 1126 m -27 X s 390 1147 m -27 X s 390 1161 m -27 X s 390 1173 m -27 X s 390 1182 m -27 X s 390 1190 m -27 X s 390 1197 m -27 X s 390 1203 m -27 X
 s 417 1208 m -54 X s
 gsave  2268 1645 0 0 C 297.916 1207.23 t 0 r /Helvetica findfont 51.1348 sf 0 0 m (\2552) show NC gr 
 gsave  2268 1645 0 0 C 213.432 1173.88 t 0 r /Helvetica findfont 77.8138 sf 0 0 m (10) show NC gr  390 1244 m -27 X s 390 1265 m -27 X s 390 1280 m -27 X s 390 1291 m -27 X s 390 1300 m -27 X s 390 1308 m -27 X s 390 1315 m -27 X s 390 1321 m -27 X
 s 417 1327 m -54 X s
 gsave  2268 1645 0 0 C 306.809 1325.06 t 0 r /Helvetica findfont 51.1348 sf 0 0 m (\2551) show NC gr 
 gsave  2268 1645 0 0 C 222.325 1291.71 t 0 r /Helvetica findfont 77.8138 sf 0 0 m (10) show NC gr  390 1362 m -27 X s 390 1383 m -27 X s 390 1398 m -27 X s 390 1409 m -27 X s 390 1419 m -27 X s 390 1426 m -27 X s 390 1433 m -27 X s 390 1439 m -27 X
 s 417 1445 m -54 X s
 gsave  2268 1645 0 0 C 342.425 1411.89 t 0 r  -42 0 t /Helvetica findfont 77.8138 sf 0 0 m (1) show NC gr  390 1480 m -27 X s 390 1501 m -27 X s 390 1516 m -27 X s 390 1527 m -27 X s 390 1537 m -27 X s 390 1545 m -27 X s 390 1551 m -27 X s 390 1558
 m -27 X s 417 1563 m -54 X s
 gsave  2268 1645 0 0 C 342.425 1530.04 t 0 r  -85 0 t /Helvetica findfont 77.8138 sf 0 0 m (10) show NC gr  2086 263 m 1300 Y s 2033 263 m 53 X s 2059 299 m 27 X s 2059 320 m 27 X s 2059 334 m 27 X s 2059 346 m 27 X s 2059 355 m 27 X s 2059 363 m 27
 X s 2059 370 m 27 X s 2059 376 m 27 X s 2033 381 m 53 X s 2059 417 m 27 X s 2059 438 m 27 X s 2059 453 m 27 X s 2059 464 m 27 X s 2059 473 m 27 X s 2059 481 m 27 X s 2059 488 m 27 X s 2059 494 m 27 X s 2033 500 m 53 X s 2059 535 m 27 X s 2059 556 m
 27 X s 2059 571 m 27 X s 2059 582 m 27 X s 2059 591 m 27 X s 2059 599 m 27 X s 2059 606 m 27 X s 2059 612 m 27 X s 2033 618 m 53 X s 2059 653 m 27 X s 2059 674 m 27 X s 2059 689 m 27 X s 2059 700 m 27 X s 2059 710 m 27 X s 2059 718 m 27 X s 2059 724
 m 27 X s 2059 730 m 27 X s 2033 736 m 53 X s 2059 771 m 27 X s 2059 792 m 27 X s 2059 807 m 27 X s 2059 818 m 27 X s 2059 828 m 27 X s 2059 836 m 27 X s 2059 843 m 27 X s 2059 849 m 27 X s 2033 854 m 53 X s 2059 890 m 27 X s 2059 910 m 27 X s 2059
 925 m 27 X s 2059 937 m 27 X s 2059 946 m 27 X s 2059 954 m 27 X s 2059 961 m 27 X s 2059 967 m 27 X s 2033 972 m 53 X s 2059 1008 m 27 X s 2059 1029 m 27 X s 2059 1043 m 27 X s 2059 1055 m 27 X s 2059 1064 m 27 X s 2059 1072 m 27 X s 2059 1079 m 27
 X s 2059 1085 m 27 X s 2033 1090 m 53 X s 2059 1126 m 27 X s 2059 1147 m 27 X s 2059 1161 m 27 X s 2059 1173 m 27 X s 2059 1182 m 27 X s 2059 1190 m 27 X s 2059 1197 m 27 X s 2059 1203 m 27 X s 2033 1208 m 53 X s 2059 1244 m 27 X s 2059 1265 m 27 X
 s 2059 1280 m 27 X s 2059 1291 m 27 X s 2059 1300 m 27 X s 2059 1308 m 27 X s 2059 1315 m 27 X s 2059 1321 m 27 X s 2033 1327 m 53 X s 2059 1362 m 27 X s 2059 1383 m 27 X s 2059 1398 m 27 X s 2059 1409 m 27 X s 2059 1419 m 27 X s 2059 1426 m 27 X s
 2059 1433 m 27 X s 2059 1439 m 27 X s 2033 1445 m 53 X s 2059 1480 m 27 X s 2059 1501 m 27 X s 2059 1516 m 27 X s 2059 1527 m 27 X s 2059 1537 m 27 X s 2059 1545 m 27 X s 2059 1551 m 27 X s 2059 1558 m 27 X s 2033 1563 m 53 X s 6 lw 521 1409 m 1408
 X s 3 lw /w 14 def /w2 {w 2 div} def /w3 {w 3 div} def 521 1409 577 1409 633 1409 690 1409 746 1409 802 1409 915 1409 1027 1409 1140 1409 1253 1409 1365 1409 1478 1409 1591 1409 1703 1409 1816 1409 1929 1409 16 { m20} R 6 lw[  12 12 ] 0 sd 521 1315
 m 56 -202 d 56 -3 d 57 33 d 56 -10 d 56 -41 d 113 6 d 112 -94 d 113 -166 d 113 -14 d 112 -191 d 113 19 d 113 -3 d 112 40 d 113 -29 d 113 -6 d s
 gsave  2268 1645 0 0 C 1474.02 518.018 t 0 r /Helvetica findfont 77.8138 sf 0 0 m (Observed ) show NC gr [  ] 0 sd 1378 535 m 79 X s 3 lw 1417 535 m20 6 lw
 gsave  2268 1645 0 0 C 1767.48 435.757 t 0 r /Helvetica findfont 77.8138 sf 0 0 m ( = 125 GeV) show NC gr 
 gsave  2268 1645 0 0 C 1734.14 395.739 t 0 r /Helvetica findfont 51.1348 sf 0 0 m (H) show NC gr 
 gsave  2268 1645 0 0 C 1474.02 435.757 t 0 r /Helvetica findfont 77.8138 sf 0 0 m (Exp.  m) show NC gr [  12 12 ] 0 sd 1378 452 m 79 X s 0 0.8 0 c 352 1409 m 1916 X s 352 1350 m 1916 X s black
 gsave  2268 1645 0 0 C 3137.01 1340.62 t 0 r /Symbol findfont 77.8138 sf 0 0 m (s) show NC gr 
 gsave  2268 1645 0 0 C 3108.11 1340.62 t 0 r /Helvetica findfont 77.8138 sf 0 0 m (1) show NC gr  0 0.8 0 c 352 1251 m 1916 X s black
 gsave  2268 1645 0 0 C 3148.12 1240.57 t 0 r /Symbol findfont 77.8138 sf 0 0 m (s) show NC gr 
 gsave  2268 1645 0 0 C 3108.11 1240.57 t 0 r /Helvetica findfont 77.8138 sf 0 0 m (2) show NC gr  0 0.8 0 c 352 1106 m 1916 X s black
 gsave  2268 1645 0 0 C 3148.12 1096.06 t 0 r /Symbol findfont 77.8138 sf 0 0 m (s) show NC gr 
 gsave  2268 1645 0 0 C 3108.11 1096.06 t 0 r /Helvetica findfont 77.8138 sf 0 0 m (3) show NC gr  0 0.8 0 c 352 913 m 1916 X s black
 gsave  2268 1645 0 0 C 3150.35 902.64 t 0 r /Symbol findfont 77.8138 sf 0 0 m (s) show NC gr 
 gsave  2268 1645 0 0 C 3108.11 902.64 t 0 r /Helvetica findfont 77.8138 sf 0 0 m (4) show NC gr  0 0.8 0 c 352 672 m 1916 X s black
 gsave  2268 1645 0 0 C 3148.12 660.306 t 0 r /Symbol findfont 77.8138 sf 0 0 m (s) show NC gr 
 gsave  2268 1645 0 0 C 3108.11 660.306 t 0 r /Helvetica findfont 77.8138 sf 0 0 m (5) show NC gr  0 0.8 0 c 352 381 m 1916 X s black
 gsave  2268 1645 0 0 C 3148.12 371.283 t 0 r /Symbol findfont 77.8138 sf 0 0 m (s) show NC gr 
 gsave  2268 1645 0 0 C 3108.11 371.283 t 0 r /Helvetica findfont 77.8138 sf 0 0 m (6) show NC gr 
 gr  gr showpage
end
%%EOF
